vp\rest\student\RESTStudent\model\Student.class
vp\rest\student\RESTStudent\service\CourseService.class
vp\rest\student\RESTStudent\App.class
vp\rest\student\RESTStudent\data\StudentRepository.class
vp\rest\student\RESTStudent\model\Exam.class
vp\rest\student\RESTStudent\controller\StudentController.class
vp\rest\student\RESTStudent\data\ExamRepository.class
vp\rest\student\RESTStudent\service\StudentService.class
vp\rest\student\RESTStudent\controller\CourseController.class
vp\rest\student\RESTStudent\controller\ExamController.class
vp\rest\student\RESTStudent\data\CourseRepository.class
vp\rest\student\RESTStudent\model\Course.class
vp\rest\student\RESTStudent\service\ExamService.class
